# This file was produced by the NASA Exoplanet Archive  http://exoplanetarchive.ipac.caltech.edu
# Wed Oct  2 22:17:37 2024
#
# User preference: *
#
# CONSTRAINT:  where (koi_disposition like '%candidate%'
# CONSTRAINT:  and koi_pdisposition like '%candidate%'
# CONSTRAINT:  and koi_score > 0.94)
#
# COLUMN kepid:          KepID
# COLUMN kepoi_name:     KOI Name
# COLUMN kepler_name:    Kepler Name
# COLUMN koi_disposition: Exoplanet Archive Disposition
# COLUMN koi_pdisposition: Disposition Using Kepler Data
# COLUMN koi_score:      Disposition Score
# COLUMN koi_fpflag_nt:  Not Transit-Like False Positive Flag
# COLUMN koi_fpflag_ss:  Stellar Eclipse False Positive Flag
# COLUMN koi_fpflag_co:  Centroid Offset False Positive Flag
# COLUMN koi_fpflag_ec:  Ephemeris Match Indicates Contamination False Positive Flag
# COLUMN koi_period:     Orbital Period [days]
# COLUMN koi_period_err1: Orbital Period Upper Unc. [days]
# COLUMN koi_period_err2: Orbital Period Lower Unc. [days]
# COLUMN koi_time0bk:    Transit Epoch [BKJD]
# COLUMN koi_time0bk_err1: Transit Epoch Upper Unc. [BKJD]
# COLUMN koi_time0bk_err2: Transit Epoch Lower Unc. [BKJD]
# COLUMN koi_impact:     Impact Parameter
# COLUMN koi_impact_err1: Impact Parameter Upper Unc.
# COLUMN koi_impact_err2: Impact Parameter Lower Unc.
# COLUMN koi_duration:   Transit Duration [hrs]
# COLUMN koi_duration_err1: Transit Duration Upper Unc. [hrs]
# COLUMN koi_duration_err2: Transit Duration Lower Unc. [hrs]
# COLUMN koi_depth:      Transit Depth [ppm]
# COLUMN koi_depth_err1: Transit Depth Upper Unc. [ppm]
# COLUMN koi_depth_err2: Transit Depth Lower Unc. [ppm]
# COLUMN koi_prad:       Planetary Radius [Earth radii]
# COLUMN koi_prad_err1:  Planetary Radius Upper Unc. [Earth radii]
# COLUMN koi_prad_err2:  Planetary Radius Lower Unc. [Earth radii]
# COLUMN koi_teq:        Equilibrium Temperature [K]
# COLUMN koi_teq_err1:   Equilibrium Temperature Upper Unc. [K]
# COLUMN koi_teq_err2:   Equilibrium Temperature Lower Unc. [K]
# COLUMN koi_insol:      Insolation Flux [Earth flux]
# COLUMN koi_insol_err1: Insolation Flux Upper Unc. [Earth flux]
# COLUMN koi_insol_err2: Insolation Flux Lower Unc. [Earth flux]
# COLUMN koi_model_snr:  Transit Signal-to-Noise
# COLUMN koi_tce_plnt_num: TCE Planet Number
# COLUMN koi_tce_delivname: TCE Delivery
# COLUMN koi_steff:      Stellar Effective Temperature [K]
# COLUMN koi_steff_err1: Stellar Effective Temperature Upper Unc. [K]
# COLUMN koi_steff_err2: Stellar Effective Temperature Lower Unc. [K]
# COLUMN koi_slogg:      Stellar Surface Gravity [log10(cm/s**2)]
# COLUMN koi_slogg_err1: Stellar Surface Gravity Upper Unc. [log10(cm/s**2)]
# COLUMN koi_slogg_err2: Stellar Surface Gravity Lower Unc. [log10(cm/s**2)]
# COLUMN koi_srad:       Stellar Radius [Solar radii]
# COLUMN koi_srad_err1:  Stellar Radius Upper Unc. [Solar radii]
# COLUMN koi_srad_err2:  Stellar Radius Lower Unc. [Solar radii]
# COLUMN ra:             RA [decimal degrees]
# COLUMN dec:            Dec [decimal degrees]
# COLUMN koi_kepmag:     Kepler-band [mag]
#
kepid,kepoi_name,kepler_name,koi_disposition,koi_pdisposition,koi_score,koi_fpflag_nt,koi_fpflag_ss,koi_fpflag_co,koi_fpflag_ec,koi_period,koi_period_err1,koi_period_err2,koi_time0bk,koi_time0bk_err1,koi_time0bk_err2,koi_impact,koi_impact_err1,koi_impact_err2,koi_duration,koi_duration_err1,koi_duration_err2,koi_depth,koi_depth_err1,koi_depth_err2,koi_prad,koi_prad_err1,koi_prad_err2,koi_teq,koi_teq_err1,koi_teq_err2,koi_insol,koi_insol_err1,koi_insol_err2,koi_model_snr,koi_tce_plnt_num,koi_tce_delivname,koi_steff,koi_steff_err1,koi_steff_err2,koi_slogg,koi_slogg_err1,koi_slogg_err2,koi_srad,koi_srad_err1,koi_srad_err2,ra,dec,koi_kepmag
11358305,K08052.01,,CANDIDATE,CANDIDATE,0.9410,0,0,0,0,7.868712300,1.3600000e-04,-1.3600000e-04,133.2612000,1.350000e-02,-1.350000e-02,0.7480,0.2330,-0.5040,3.73900,0.45400,-0.45400,8.9100e+01,1.180e+01,-1.180e+01,1.73,4.900e-01,-5.000e-01,1323.0,,,722.44,613.46,-412.98,9.10,1,q1_q17_dr25_tce,6738.00,189.00,-284.00,4.109,0.195,-0.175,1.6920,0.4850,-0.4850,295.590120,49.198601,13.410
11350118,K04509.01,,CANDIDATE,CANDIDATE,0.9420,0,0,0,0,12.003678000,1.0070000e-04,-1.0070000e-04,134.7100700,6.640000e-03,-6.640000e-03,0.0760,0.3680,-0.0760,2.79900,0.25300,-0.25300,2.8170e+02,2.810e+01,-2.810e+01,0.97,8.000e-02,-9.000e-02,503.0,,,15.12,4.91,-4.15,12.00,1,q1_q17_dr25_tce,4328.00,131.00,-131.00,4.654,0.056,-0.024,0.5940,0.0500,-0.0560,291.695160,49.187859,15.675
6424561,K04900.01,,CANDIDATE,CANDIDATE,0.9420,0,0,0,0,6.671672300,5.4740000e-05,-5.4740000e-05,131.9270800,6.820000e-03,-6.820000e-03,0.1670,0.2870,-0.1670,2.69300,0.25500,-0.25500,1.5440e+02,1.780e+01,-1.780e+01,1.27,4.300e-01,-1.400e-01,1024.0,,,259.72,258.68,-84.65,10.30,1,q1_q17_dr25_tce,6086.00,168.00,-232.00,4.435,0.070,-0.210,1.0210,0.3450,-0.1150,284.578060,41.890259,15.134
8155654,K06980.01,,CANDIDATE,CANDIDATE,0.9430,0,0,0,0,6.293405430,9.8260000e-05,-9.8260000e-05,133.8686000,1.290000e-02,-1.290000e-02,0.4310,0.0320,-0.4310,3.02400,0.41300,-0.41300,9.6400e+01,1.390e+01,-1.390e+01,1.08,3.800e-01,-1.100e-01,1072.0,,,312.61,327.36,-91.29,8.70,1,q1_q17_dr25_tce,6214.00,167.00,-223.00,4.442,0.056,-0.224,1.0760,0.3840,-0.1020,287.941650,44.008018,15.186
11019739,K07400.01,,CANDIDATE,CANDIDATE,0.9430,0,0,0,0,4.157364720,3.9360000e-05,-3.9360000e-05,132.8585500,9.050000e-03,-9.050000e-03,0.2260,0.2380,-0.2260,2.21700,0.20700,-0.20700,2.0070e+02,2.140e+01,-2.140e+01,1.09,1.400e-01,-1.000e-01,931.0,,,178.03,75.44,-47.95,11.20,1,q1_q17_dr25_tce,5183.00,154.00,-154.00,4.558,0.045,-0.078,0.7820,0.0980,-0.0720,286.400330,48.521961,15.517
9390228,K07934.01,,CANDIDATE,CANDIDATE,0.9430,0,0,0,0,22.643243600,1.2860000e-04,-1.2860000e-04,153.4460700,3.940000e-03,-3.940000e-03,0.1360,0.3930,-0.1360,0.80600,0.19100,-0.19100,5.5040e+02,9.920e+01,-9.920e+01,2.12,6.500e-01,-2.200e-01,624.0,,,35.77,32.26,-10.25,8.20,1,q1_q17_dr25_tce,5880.00,159.00,-177.00,4.516,0.050,-0.200,0.8910,0.2740,-0.0910,284.672270,45.973820,15.581
7841925,K01499.02,,CANDIDATE,CANDIDATE,0.9440,0,0,0,0,0.840594032,4.4560000e-06,-4.4560000e-06,131.7410400,3.990000e-03,-3.990000e-03,0.0180,0.4420,-0.0180,1.40400,0.14300,-0.14300,4.9800e+01,5.300e+00,-5.300e+00,0.62,1.300e-01,-9.000e-02,1780.0,,,2368.31,1583.23,-836.95,11.60,3,q1_q17_dr25_tce,5440.00,162.00,-162.00,4.438,0.144,-0.192,0.8850,0.1930,-0.1290,297.724270,43.527431,14.480
6311891,K04627.01,,CANDIDATE,CANDIDATE,0.9440,0,0,0,0,7.517317450,9.5490000e-05,-9.5490000e-05,137.5970400,9.350000e-03,-9.350000e-03,0.2560,0.1930,-0.2560,2.48400,0.27000,-0.27000,1.7070e+02,1.920e+01,-1.920e+01,1.19,1.500e-01,-7.000e-02,861.0,,,129.74,42.31,-21.99,10.70,1,q1_q17_dr25_tce,5525.00,74.00,-83.00,4.488,0.045,-0.105,0.9230,0.1120,-0.0560,298.758360,41.631031,15.029
7771181,K04797.01,,CANDIDATE,CANDIDATE,0.9440,0,0,0,0,9.972020230,8.6450000e-05,-8.6450000e-05,137.7118100,7.700000e-03,-7.700000e-03,0.4010,0.0680,-0.4010,1.42500,0.32800,-0.32800,3.2970e+02,6.310e+01,-6.310e+01,1.26,1.100e-01,-1.200e-01,627.0,,,36.53,13.12,-10.68,8.60,1,q1_q17_dr25_tce,4810.00,173.00,-173.00,4.584,0.060,-0.035,0.6960,0.0600,-0.0660,297.348420,43.421219,15.693
5531953,K01681.03,,CANDIDATE,CANDIDATE,0.9440,0,0,0,0,3.531058350,1.8770000e-05,-1.8770000e-05,134.3171000,3.760000e-03,-3.760000e-03,1.2130,59.4100,-2.7970,1.77800,0.22500,-0.22500,3.1080e+02,3.310e+01,-3.310e+01,10.61,1.160e+00,-1.420e+00,558.0,,,22.83,7.57,-7.26,11.70,4,q1_q17_dr25_tce,3638.00,72.00,-87.00,4.844,0.049,-0.055,0.4200,0.0460,-0.0560,291.285000,40.730049,15.855
8009811,K05459.01,,CANDIDATE,CANDIDATE,0.9440,0,0,0,0,53.554546000,1.4230000e-03,-1.4230000e-03,160.3983000,2.470000e-02,-2.470000e-02,0.6200,0.0130,-0.4960,5.53300,0.75600,-0.75600,1.2760e+02,1.850e+01,-1.850e+01,3.10,4.400e-01,-1.040e+00,769.0,,,82.79,31.45,-48.13,8.90,1,q1_q17_dr25_tce,6039.00,81.00,-81.00,3.760,0.300,-0.100,2.6220,0.3770,-0.8790,283.373840,43.801361,11.470
8227086,K06993.01,,CANDIDATE,CANDIDATE,0.9450,0,0,0,0,13.808633100,2.3890000e-04,-2.3890000e-04,141.6040000,1.650000e-02,-1.650000e-02,0.0290,0.4260,-0.0290,3.61300,0.42800,-0.42800,2.0710e+02,2.700e+01,-2.700e+01,1.09,1.900e-01,-1.100e-01,659.0,,,44.50,25.22,-12.38,9.00,1,q1_q17_dr25_tce,5515.00,165.00,-165.00,4.568,0.056,-0.112,0.7610,0.1370,-0.0740,289.622920,44.104431,15.567
10190075,K03007.01,,CANDIDATE,CANDIDATE,0.9460,0,0,0,0,11.191619900,8.1190000e-05,-8.1190000e-05,138.0425800,6.000000e-03,-6.000000e-03,0.8950,0.0770,-0.6540,2.10000,0.20500,-0.20500,1.6640e+02,1.700e+01,-1.700e+01,1.47,2.000e-01,-1.000e-01,782.0,,,88.34,30.94,-16.88,11.90,1,q1_q17_dr25_tce,5646.00,67.00,-84.00,4.464,0.051,-0.119,0.9560,0.1290,-0.0700,283.335330,47.208832,14.528
3645438,K04385.03,,CANDIDATE,CANDIDATE,0.9460,0,0,0,0,17.369511200,4.8960000e-04,-4.8960000e-04,136.6159000,2.390000e-02,-2.390000e-02,0.2800,0.1820,-0.2800,4.01200,0.74000,-0.74000,3.1400e+02,5.640e+01,-5.640e+01,1.45,8.000e-02,-9.000e-02,588.0,,,28.35,5.36,-4.99,8.60,3,q1_q17_dr25_tce,5119.00,82.00,-82.00,4.508,0.060,-0.040,0.8340,0.0470,-0.0520,291.399380,38.787750,15.825
6842345,K06774.01,,CANDIDATE,CANDIDATE,0.9460,0,0,0,0,17.381622400,1.2550000e-06,-1.2550000e-06,142.4067834,6.180000e-05,-6.180000e-05,0.6660,0.0150,-0.0020,2.73456,0.00508,-0.00508,5.9099e+04,7.240e+01,-7.240e+01,26.55,7.700e+00,-4.140e+00,756.0,,,77.09,67.29,-29.03,1149.70,1,q1_q17_dr25_tce,6116.00,183.00,-201.00,4.407,0.090,-0.195,1.0200,0.2960,-0.1590,284.132080,42.350441,15.567
10028792,K01574.04,,CANDIDATE,CANDIDATE,0.9460,0,0,0,0,8.977288800,1.4510000e-04,-1.4510000e-04,133.4474800,9.610000e-03,-9.610000e-03,0.7020,0.2690,-0.5000,4.72000,0.31000,-0.31000,9.7500e+01,1.000e+01,-1.000e+01,1.79,1.500e-01,-1.300e-01,1113.0,,,362.75,100.80,-72.55,10.30,4,q1_q17_dr25_tce,5597.00,112.00,-101.00,3.963,0.054,-0.045,1.6990,0.1470,-0.1230,297.916870,46.965130,14.600
9674320,K07223.01,,CANDIDATE,CANDIDATE,0.9470,0,0,0,0,317.062416000,2.4250000e-03,-2.4250000e-03,297.8371000,1.090000e-02,-1.090000e-02,0.6730,0.2690,-0.4450,7.43800,0.65000,-0.65000,4.4290e+02,4.380e+01,-4.380e+01,1.59,2.700e-01,-1.200e-01,218.0,,,0.54,0.29,-0.13,9.80,1,q1_q17_dr25_tce,5366.00,160.00,-144.00,4.625,0.032,-0.104,0.7150,0.1220,-0.0520,300.345250,46.339882,14.634
7191646,K04358.01,,CANDIDATE,CANDIDATE,0.9480,0,0,0,0,106.957467000,2.1690000e-03,-2.1690000e-03,224.9874000,1.320000e-02,-1.320000e-02,0.7050,0.0020,-0.5380,7.00600,0.50300,-0.50300,5.3960e+02,5.470e+01,-5.470e+01,2.40,7.500e-01,-2.400e-01,394.0,,,5.70,5.34,-1.72,11.70,1,q1_q17_dr25_tce,6075.00,189.00,-210.00,4.486,0.054,-0.216,0.9690,0.3000,-0.1000,289.083130,42.704140,15.716
11411639,K07445.01,,CANDIDATE,CANDIDATE,0.9480,0,0,0,0,6.933574000,1.1990000e-04,-1.1990000e-04,134.5580000,1.430000e-02,-1.430000e-02,0.0500,0.4010,-0.0500,2.43000,0.54300,-0.54300,2.7670e+02,4.940e+01,-4.940e+01,1.30,2.500e-01,-1.000e-01,829.0,,,111.53,64.69,-28.36,8.00,1,q1_q17_dr25_tce,5510.00,149.00,-166.00,4.584,0.034,-0.127,0.7930,0.1520,-0.0650,295.924040,49.220188,15.804
8226050,K01910.02,,CANDIDATE,CANDIDATE,0.9490,0,0,0,0,18.384833100,2.6220000e-04,-2.6220000e-04,135.4745000,1.480000e-02,-1.480000e-02,0.7110,0.2530,-0.5130,3.54500,0.38500,-0.38500,1.5180e+02,1.690e+01,-1.690e+01,1.15,6.000e-02,-9.000e-02,587.0,,,27.99,4.82,-5.81,10.30,2,q1_q17_dr25_tce,5083.00,83.00,-76.00,4.468,0.088,-0.033,0.8720,0.0420,-0.0720,289.192630,44.149319,14.685
10793172,K02871.04,,CANDIDATE,CANDIDATE,0.9490,0,0,0,0,7.978819800,1.2640000e-04,-1.2640000e-04,132.2596000,1.290000e-02,-1.290000e-02,0.0500,0.4150,-0.0500,2.87400,0.35300,-0.35300,8.3800e+01,1.140e+01,-1.140e+01,0.99,1.400e-01,-1.500e-01,927.0,,,174.85,67.54,-54.17,8.30,3,q1_q17_dr25_tce,5553.00,74.00,-74.00,4.330,0.137,-0.100,1.0980,0.1610,-0.1610,290.201630,48.185822,14.754
9031703,K04520.01,,CANDIDATE,CANDIDATE,0.9490,0,0,0,0,9.333548600,2.1040000e-04,-2.1040000e-04,137.6177000,1.570000e-02,-1.570000e-02,0.7250,0.2360,-0.5070,6.64300,0.74300,-0.74300,7.1200e+01,7.200e+00,-7.200e+00,1.69,2.900e-01,-3.500e-01,1082.0,,,323.68,151.13,-132.52,11.70,1,q1_q17_dr25_tce,5354.00,88.00,-72.00,3.927,0.150,-0.100,1.8630,0.3210,-0.3920,295.214260,45.324509,14.276
11357664,K04464.01,,CANDIDATE,CANDIDATE,0.9490,0,0,0,0,4.373570433,9.2560000e-06,-9.2560000e-06,133.8281400,1.760000e-03,-1.760000e-03,0.1000,0.3870,-0.1000,0.62300,0.11900,-0.11900,3.6600e+02,3.080e+01,-3.080e+01,1.23,8.000e-02,-1.100e-01,727.0,,,66.12,19.15,-17.22,14.50,1,q1_q17_dr25_tce,4362.00,131.00,-131.00,4.623,0.049,-0.021,0.6400,0.0450,-0.0550,295.306520,49.179668,15.194
6705026,K03374.02,,CANDIDATE,CANDIDATE,0.9490,0,0,0,0,34.108656200,7.0450000e-04,-7.0450000e-04,158.4310000,1.550000e-02,-1.550000e-02,0.3180,0.1340,-0.3180,6.40500,0.45500,-0.45500,1.3380e+02,1.200e+01,-1.200e+01,1.95,3.800e-01,-3.900e-01,739.0,,,70.40,36.40,-27.67,11.70,2,q1_q17_dr25_tce,6144.00,80.00,-80.00,4.106,0.159,-0.130,1.6680,0.3340,-0.3340,295.409790,42.150829,14.440
11407847,K05895.01,,CANDIDATE,CANDIDATE,0.9490,0,0,0,0,11.830772400,2.9400000e-04,-2.9400000e-04,140.1105000,2.340000e-02,-2.340000e-02,0.5920,0.3690,-0.3830,8.79100,0.53200,-0.53200,1.3600e+02,1.290e+01,-1.290e+01,1.16,2.900e-01,-1.700e-01,770.0,,,83.17,63.41,-29.60,12.40,1,q1_q17_dr25_tce,5550.00,166.00,-166.00,4.411,0.124,-0.186,0.9580,0.2410,-0.1410,294.300840,49.240311,15.337
3240158,K01106.03,,CANDIDATE,CANDIDATE,0.9490,0,0,0,0,13.229820300,2.7830000e-04,-2.7830000e-04,134.3757000,1.950000e-02,-1.950000e-02,0.4350,0.0460,-0.4140,3.56600,0.67900,-0.67900,1.5780e+02,1.500e+01,-1.500e+01,1.50,2.400e-01,-1.400e-01,856.0,,,126.84,51.02,-28.20,10.00,3,q1_q17_dr25_tce,6049.00,72.00,-91.00,4.353,0.076,-0.114,1.1760,0.1840,-0.1070,292.713100,38.358212,14.818
