kepid,kepoi_name,Comment,,,kepid,kepoi_name,Comment
7609674,K03128.01,Done,,,11358305,K08052.01,Done
5710069,K03396.01,Done,,,11350118,K04509.01,Done
8625408,K07073.01,Done,,,6424561,K04900.01,Done
5353938,K06568.01,Done,,,8155654,K06980.01,Done
10028792,K01574.03,Done,,,11019739,K07400.01,Done
7906882,K00686.01,Done,,,9390228,K07934.01,Done
10610039,K04577.02,Done,,,7841925,K01499.02,Done
9602613,K02612.02,Done,,,6311891,K04627.01,Done
7592922,K06890.01,Done,,,7771181,K04797.01,Done
3545478,K00366.01,Done,,,5531953,K01681.03,Done
7673841,K02585.03,Done,,,8009811,K05459.01,Done
10647452,K04366.01,Done,,,8227086,K06993.01,Done
5374838,K05155.01,Done,,,10190075,K03007.01,Done
11672354,K07471.01,Done,,,3645438,K04385.03,Done
9099607,K07925.01,Done,,,6842345,K06774.01,Done
4385148,K02942.01,Done,,,10028792,K01574.04,Done
4548011,K04288.02,Done,,,9674320,K07223.01,Done
6203955,K05249.01,Done,,,7191646,K04358.01,Done
9145861,K06194.01,Done,,,11411639,K07445.01,Done
7816935,K06921.01,Done,,,8226050,K01910.02,Done
10873178,K04597.01,Done,,,10793172,K02871.04,Done
8874090,K01404.02,Done,,,9031703,K04520.01,Done
5257082,K03368.01,Done,,,11357664,K04464.01,Done
4844470,K03469.01,Done,,,6705026,K03374.02,Done
6768616,K06765.01,Done,,,11407847,K05895.01,Done
6128245,K06666.01,Done,,,3240158,K01106.03,Done
10397751,K02859.04,Done,,,,,
10200627,K06217.01,Done,,,,,
2302997,K07630.01,Done,,,,,
10221505,K04768.01,Done,,,,,
6443093,K05284.01,Done,,,,,
8345384,K04399.01,Done,,,,,
12266636,K01522.02,Done,,,,,
7835312,K06164.01,Done,,,,,
9873004,K07970.01,Done,,,,,
11290515,K04716.01,Done,,,,,
2557350,K06276.01,Done,,,,,
4049901,K02295.01,Done,,,,,
9109857,K02833.01,Done,,,,,
10875007,K04149.01,Done,,,,,
2558163,K04655.01,Done,,,,,
6144039,K04602.01,Done,,,,,
6043562,K04764.01,Done,,,,,
10917433,K03248.01,Done,,,,,
1432789,K00992.02,Done,,,,,
3752110,K03142.01,Done,,,,,
3557560,K04456.01,Done,,,,,
6543192,K05297.01,Done,,,,,
4547603,K02855.01,Done,,,,,
7106173,K03083.01,Done,,,,,
10450504,K07327.01,Done,,,,,
8264402,K04037.01,Done,,,,,
7119481,K00566.03,Done,,,,,
12458605,K04605.01,Done,,,,,
6131130,K03307.01,Done,,,,,
10291589,K04754.01,Done,,,,,
8376848,K04007.01,Done,,,,,
9700449,K04120.01,Done,,,,,
12737015,K04245.01,Done,,,,,
9773980,K04691.01,Done,,,,,
10663738,K04698.01,Done,,,,,
5437762,K04907.01,Done,,,,,
8216763,K04838.01,Done,,,,,
9391817,K05663.01,Done,,,,,
8222395,K07873.01,Done,,,,,
5966732,K06641.01,Done,,,,,
10665749,K07359.01,Done,,,,,
8018547,K00902.01,Done,,,,,
2305866,K02610.01,Done,,,,,
11135694,K04896.02,Done,,,,,
10265898,K00732.02,Done,,,,,
7834712,K07850.01,Done,,,,,
7289338,K03420.01,Done,,,,,
3232249,K07648.01,Done,,,,,
6186182,K04496.01,Done,,,,,
4048898,K07678.01,Done,,,,,
5511659,K04541.01,Done,,,,,
2161949,K06259.02,Done,,,,,
9836563,K04421.02,Done,,,,,
8677057,K07903.01,Done,,,,,
11853130,K03263.01,Done,,,,,
5597361,K06601.01,Done,,,,,
3733638,K06353.01,Done,,,,,
5602588,K02369.03,Done,,,,,
7199060,K04152.01,Done,,,,,
4172805,K04427.01,Done,,,,,
5208962,K04912.01,Done,,,,,
8054719,K04776.01,Done,,,,,
6200810,K03397.01,Done,,,,,
7289338,K03420.02,Done,,,,,
3553900,K04992.01,Done,,,,,
6527078,K04657.02,Done,,,,,
6934986,K02294.01,Done,,,,,
11124436,K04442.01,Done,,,,,
1721157,K04644.01,Done,,,,,
6717252,K04651.01,Done,,,,,
5966810,K03909.01,Done,,,,,
7429287,K04260.04,Done,,,,,
4773392,K04367.01,Done,,,,,
6369131,K04554.01,Done,,,,,
10549902,K04826.01,Done,,,,,
7692093,K03337.01,Done,,,,,
6763884,K06763.01,Done,,,,,
9651602,K07215.01,Done,,,,,
9640649,K07951.01,Done,,,,,
6364215,K02404.01,Done,,,,,
4770617,K02243.03,Done,,,,,
7256914,K04136.02,Done,,,,,
6223324,K04274.01,Done,,,,,
5431027,K04558.01,Done,,,,,
9947389,K04460.01,Done,,,,,
9536108,K03472.01,Done,,,,,
9947653,K04647.02,Done,,,,,
6947623,K06793.01,Done,,,,,
7902204,K06931.01,Done,,,,,
12067960,K07510.01,Done,,,,,
8261920,K02174.01,Done,,,,,
11338056,K04735.01,Done,,,,,
5859725,K05207.01,Done,,,,,
6307000,K06687.01,Done,,,,,
12602999,K08082.01,Done,,,,,
5080636,K01843.02,Done,,,,,
9872283,K01815.02,Done,,,,,
10272442,K00734.02,Done,,,,,
7801070,K04361.01,Done,,,,,
3529290,K03340.01,Done,,,,,
6891124,K07796.01,Done,,,,,
4135912,K05040.01,Done,,,,,
9347899,K00935.04,Done,,,,,
5730445,K02189.01,Done,,,,,
6697817,K03508.01,Done,,,,,
3758499,K05007.01,Done,,,,,
8110757,K07865.01,Done,,,,,
11566064,K00353.03,Done,,,,,
10331279,K08000.01,Done,,,,,
9906688,K07976.01,Done,,,,,
6523351,K03117.01,Done,,,,,
6779260,K02678.02,Done,,,,,
7098255,K04762.01,Done,,,,,
2715695,K03077.02,Done,,,,,
7512982,K01480.02,Done,,,,,
4846856,K02900.01,Done,,,,,
8703129,K02758.01,Done,,,,,
8827575,K03052.01,Done,,,,,
11284772,K04622.02,Done,,,,,
6425597,K04861.01,Done,,,,,
5308296,K04750.01,Done,,,,,
5384713,K03444.03,Done,,,,,
6106046,K07762.01,Done,,,,,
12120943,K01458.01,Done,,,,,
9836563,K04421.01,Done,,,,,
5695615,K04756.01,Done,,,,,
8162789,K00521.02,Done,,,,,
8145958,K06978.01,Done,,,,,
8773015,K04301.02,Done,,,,,
9100953,K04500.03,Done,,,,,
11139682,K08043.01,Done,,,,,
7106173,K03083.02,Done,,,,,
2984990,K07641.01,Done,,,,,
5802637,K04398.01,Done,,,,,
8094120,K04881.01,Done,,,,,
6058816,K03500.02,Done,,,,,
3646449,K04999.01,Done,,,,,
8374077,K06179.01,Done,,,,,
9340411,K07162.01,Done,,,,,
6853172,K06776.01,Done,,,,,
12072872,K03017.01,Done,,,,,
4072955,K03041.01,Done,,,,,
5175024,K02563.02,Done,,,,,
6523058,K04549.01,Done,,,,,
8098212,K04487.01,Done,,,,,
3539231,K04626.01,Done,,,,,
5389956,K04591.01,Done,,,,,
6525946,K02093.02,Done,,,,,
6879183,K05333.01,Done,,,,,
5177859,K04246.02,Done,,,,,
8098960,K06966.01,Done,,,,,
6665860,K04840.01,Done,,,,,
6508221,K00416.03,Done,,,,,
11518201,K03104.01,Done,,,,,
8881169,K07106.01,Done,,,,,
8105398,K05475.02,Done,,,,,
9087580,K07924.01,Done,,,,,
7256914,K04136.01,Done,,,,,
3348216,K03448.01,Done,,,,,
6675757,K05310.01,Done,,,,,
11026582,K05854.01,Done,,,,,
7289317,K02450.02,Done,,,,,
8182107,K07870.01,Done,,,,,
4249611,K02821.01,Done,,,,,
11395587,K00350.01,Done,,,,,
12256520,K02264.02,Done,,,,,
4844367,K04498.01,Done,,,,,
9002538,K03196.02,Done,,,,,
10747501,K04891.01,Done,,,,,
10163067,K07291.01,Done,,,,,
5385304,K02370.01,Done,,,,,
6716021,K02679.01,Done,,,,,
8949925,K02972.01,Done,,,,,
3660581,K07662.01,Done,,,,,
5352640,K04467.01,Done,,,,,
8360041,K04854.01,Done,,,,,
5027859,K05117.01,Done,,,,,
9811915,K07232.01,Done,,,,,
3547178,K06342.01,Done,,,,,
4830605,K01660.01,Done,,,,,
4939533,K02899.01,Done,,,,,
5903749,K03029.02,Done,,,,,
9457728,K04637.01,Done,,,,,
7272132,K04466.01,Done,,,,,
10290666,K00332.02,Done,,,,,
5621333,K03341.01,Done,,,,,
5856571,K01839.02,Done,,,,,
8581240,K03111.02,Done,,,,,
3450040,K04205.01,Done,,,,,
11769689,K04551.01,Done,,,,,
9947653,K04647.01,Done,,,,,
4277304,K04774.01,Done,,,,,
6543893,K01627.03,Done,,,,,
7047922,K01899.02,Done,,,,,
4566848,K05071.01,Done,,,,,
10083325,K05761.01,Done,,,,,
11288492,K07434.01,Done,,,,,
9513168,K07182.01,Done,,,,,
9289704,K02222.01,Done,,,,,
2696205,K07636.01,Done,,,,,
6839010,K04674.01,Done,,,,,
9581589,K04877.01,Done,,,,,
9969287,K04820.01,Done,,,,,
4940203,K07711.01,Done,,,,,
8115647,K06970.01,Done,,,,,
9017682,K01630.01,Done,,,,,
10471621,K02554.02,Done,,,,,
5787131,K02927.01,Done,,,,,
6837283,K02914.01,Done,,,,,
9288237,K03114.01,Done,,,,,
3110177,K07644.01,Done,,,,,
5780855,K04443.01,Done,,,,,
8332521,K04567.01,Done,,,,,
8493354,K04505.01,Done,,,,,
5563300,K03309.01,Done,,,,,
5193659,K03323.01,Done,,,,,
2986833,K04875.01,Done,,,,,
4851530,K01884.02,Done,,,,,
5342061,K02666.01,Done,,,,,
6516185,K02445.01,Done,,,,,
9712350,K02613.01,Done,,,,,
6438099,K02976.01,Done,,,,,
7918652,K02984.01,Done,,,,,
7906892,K04773.02,Done,,,,,
5645170,K04837.01,Done,,,,,
5651846,K04827.01,Done,,,,,
9149789,K02874.01,Done,,,,,
10525077,K05800.01,Done,,,,,
9993683,K05748.01,Done,,,,,
9008103,K03283.02,Done,,,,,
8355178,K06178.01,Done,,,,,
5295206,K06557.01,Done,,,,,
5003670,K04524.03,Done,,,,,
10198225,K07991.01,Done,,,,,
10452252,K08012.01,Done,,,,,
1431122,K00994.01,Done,,,,,
7768451,K01527.01,Done,,,,,
10798331,K02373.01,Done,,,,,
11030475,K02248.03,Done,,,,,
8636539,K02656.01,Done,,,,,
6290935,K04302.01,Done,,,,,
6359926,K04391.01,Done,,,,,
12401132,K04829.01,Done,,,,,
8827930,K03801.01,Done,,,,,
7770901,K05426.01,Done,,,,,
8007174,K05458.01,Done,,,,,
5184911,K02719.02,Done,,,,,
8693536,K07076.01,Done,,,,,
8167504,K06983.01,Done,,,,,
11253711,K01972.01,Done,,,,,
6949898,K03031.01,Done,,,,,
6268648,K01613.03,Done,,,,,
7107802,K02420.02,Done,,,,,
6124137,K07764.01,Done,,,,,
5443320,K05169.01,Done,,,,,
9640123,K07209.01,Done,,,,,
8042644,K06957.01,Done,,,,,
11030475,K02248.04,Done,,,,,
11462341,K02124.01,Done,,,,,
7294743,K02516.01,Done,,,,,
12602314,K02853.01,Done,,,,,
11071200,K02696.02,Done,,,,,
3230805,K03068.01,Done,,,,,
7661893,K04296.01,Done,,,,,
9664276,K03460.01,Done,,,,,
5946568,K05211.01,Done,,,,,
9018021,K05600.01,Done,,,,,
9910043,K05732.01,Done,,,,,
11918099,K00780.02,Done,,,,,
9772531,K00950.01,Done,,,,,
9006186,K02169.04,Done,,,,,
9574179,K02637.01,Done,,,,,
6679295,K02862.01,Done,,,,,
8222627,K04098.01,Done,,,,,
8628761,K04580.01,Done,,,,,
11618569,K04792.01,Done,,,,,
6451368,K07780.01,Done,,,,,
3848966,K03389.01,Done,,,,,
9452897,K03391.01,Done,,,,,
12554212,K05974.01,Done,,,,,
6436505,K06707.01,Done,,,,,
10916600,K02623.02,Done,,,,,
6526710,K00856.01,Done,,,,,
9111849,K02042.01,Done,,,,,
6765135,K02592.01,Done,,,,,
9815053,K02923.01,Done,,,,,
10749059,K03086.01,Done,,,,,
8546542,K03073.01,Done,,,,,
4478168,K00626.02,Done,,,,,
10875007,K04149.02,Done,,,,,
11967788,K04021.02,Done,,,,,
10534155,K04345.01,Done,,,,,
2976017,K04849.01,Done,,,,,
8278073,K04799.01,Done,,,,,
7266212,K04737.01,Done,,,,,
3561464,K03398.03,Done,,,,,
7517261,K03496.02,Done,,,,,
6525946,K02093.03,Done,,,,,
6511182,K05288.01,Done,,,,,
8644911,K05553.01,Done,,,,,
9575728,K05692.01,Done,,,,,
8332521,K04567.02,Done,,,,,
2301068,K06263.01,Done,,,,,
7620413,K02103.02,Done,,,,,
8227464,K06994.01,Done,,,,,
6467363,K02840.01,Done,,,,,
5544450,K03226.02,Done,,,,,
6520753,K04504.01,Done,,,,,
7515336,K04663.01,Done,,,,,
8803757,K04904.01,Done,,,,,
7017274,K03209.01,Done,,,,,
9973109,K02018.02,Done,,,,,
9425139,K01411.01,Done,,,,,
7836096,K05435.01,Done,,,,,
10933306,K05842.01,Done,,,,,
9828127,K04192.02,Done,,,,,
11443757,K08054.01,Done,,,,,
8313667,K01145.01,Done,,,,,
8813698,K01268.01,Done,,,,,
4471747,K01656.01,Done,,,,,
5542466,K01590.03,Done,,,,,
4172746,K02531.01,Done,,,,,
10336951,K02401.01,Done,,,,,
11071200,K02696.01,Done,,,,,
9514372,K04242.01,Done,,,,,
4060229,K04570.01,Done,,,,,
12265786,K04595.01,Done,,,,,
7833305,K04528.01,Done,,,,,
9966219,K03401.01,Done,,,,,
9843517,K03480.01,Done,,,,,
6043538,K07759.01,Done,,,,,
4638237,K03811.01,Done,,,,,
6372194,K05278.01,Done,,,,,
9011877,K05597.01,Done,,,,,
5629353,K06132.01,Done,,,,,
6956176,K06798.01,Done,,,,,
6345758,K06689.01,Done,,,,,
9658089,K07220.01,Done,,,,,
10812541,K07375.01,Done,,,,,
11705004,K02199.02,Done,,,,,
6867555,K02439.02,Done,,,,,
4548098,K04157.02,Done,,,,,
7380537,K00883.01,Done,,,,,
3329204,K01095.01,Done,,,,,
3440978,K02288.01,Done,,,,,
11361283,K02551.01,Done,,,,,
7021681,K00255.02,Done,,,,,
10794974,K04235.01,Done,,,,,
8430053,K04603.01,Done,,,,,
4645174,K03437.02,Done,,,,,
7748487,K03394.01,Done,,,,,
11246161,K02796.01,Done,,,,,
2310993,K04938.01,Done,,,,,
3229150,K02150.02,Done,,,,,
7747091,K05418.01,Done,,,,,
4742420,K06120.01,Done,,,,,
2449245,K06274.01,Done,,,,,
8091197,K06960.01,Done,,,,,
5897826,K00126.02,Done,,,,,
5456979,K06579.01,Done,,,,,
7217088,K06849.01,Done,,,,,
7335514,K06860.01,Done,,,,,
9349757,K03348.02,Done,,,,,
2861126,K04957.02,Done,,,,,
11392362,K08053.01,Done,,,,,
6867155,K00868.01,Done,,,,,
11075279,K01431.01,Done,,,,,
10867062,K01303.01,Done,,,,,
9512981,K01466.01,Done,,,,,
5542466,K01590.01,Done,,,,,
5972334,K00191.03,Done,,,,,
10656508,K00211.01,Done,,,,,
11565544,K03013.01,Done,,,,,
8684730,K00319.01,Done,,,,,
6593150,K03037.01,Done,,,,,
8197793,K03123.01,Done,,,,,
8695311,K03042.01,Done,,,,,
10717241,K00430.02,Done,,,,,
4951877,K00501.01,Done,,,,,
8216763,K04838.03,Done,,,,,
9588822,K04388.02,Done,,,,,
3129238,K07645.01,Done,,,,,
9491832,K04226.01,Done,,,,,
9936080,K04431.01,Done,,,,,
8196226,K04634.01,Done,,,,,
9278216,K04710.01,Done,,,,,
8811490,K04811.01,Done,,,,,
9459162,K04818.01,Done,,,,,
11125797,K03371.01,Done,,,,,
5629353,K06132.03,Done,,,,,
4282390,K06401.01,Done,,,,,
6551106,K06731.01,Done,,,,,
10002049,K07270.01,Done,,,,,
11904835,K08068.01,Done,,,,,
11818800,K00777.01,Done,,,,,
9414417,K00974.01,Done,,,,,
4274548,K01331.01,Done,,,,,
4466677,K01338.02,Done,,,,,
11570749,K01856.01,Done,,,,,
10158418,K01784.01,Done,,,,,
11073656,K02206.01,Done,,,,,
7449554,K02357.01,Done,,,,,
6525946,K02093.01,Done,,,,,
4670217,K02560.01,Done,,,,,
3002478,K02380.01,Done,,,,,
8259713,K02935.01,Done,,,,,
8873090,K02968.01,Done,,,,,
9958387,K02677.01,Done,,,,,
5613821,K02915.01,Done,,,,,
12168993,K03105.01,Done,,,,,
5040077,K03065.01,Done,,,,,
6289650,K00415.01,Done,,,,,
3112129,K04144.01,Done,,,,,
7733731,K04022.01,Done,,,,,
7907808,K04109.01,Done,,,,,
5129453,K04208.01,Done,,,,,
9776794,K04363.01,Done,,,,,
8278685,K04435.01,Done,,,,,
3848083,K07670.01,Done,,,,,
9716028,K04273.01,Done,,,,,
10257229,K04557.01,Done,,,,,
4450844,K03168.01,Done,,,,,
12647577,K04530.01,Done,,,,,
11153476,K04601.01,Done,,,,,
7583650,K04614.01,Done,,,,,
6276791,K04477.01,Done,,,,,
6786224,K04850.01,Done,,,,,
6691169,K04890.01,Done,,,,,
3122872,K03203.01,Done,,,,,
10118266,K04755.01,Done,,,,,
10935993,K03367.01,Done,,,,,
6209677,K01750.02,Done,,,,,
7772914,K03339.01,Done,,,,,
3529290,K03340.02,Done,,,,,
8812045,K03481.01,Done,,,,,
9221528,K03355.01,Done,,,,,
7093401,K03433.01,Done,,,,,
4164922,K03864.02,Done,,,,,
7134626,K07818.01,Done,,,,,
7601665,K07842.01,Done,,,,,
6974658,K02925.01,Done,,,,,
5283728,K05149.01,Done,,,,,
6805414,K05329.01,Done,,,,,
4918303,K05104.01,Done,,,,,
9047416,K05605.01,Done,,,,,
4472818,K03878.02,Done,,,,,
7954278,K07859.01,Done,,,,,
5428657,K06130.01,Done,,,,,
4770174,K02971.02,Done,,,,,
3972432,K06375.01,Done,,,,,
11904704,K07489.01,Done,,,,,
5531953,K01681.04,Done,,,,,
2854181,K02232.02,Done,,,,,
9025739,K07125.01,Done,,,,,
8256882,K07003.01,Done,,,,,
3115833,K00797.01,Done,,,,,
3453214,K00802.01,Done,,,,,
4544670,K00815.01,Done,,,,,
6862328,K00865.01,Done,,,,,
8013419,K00901.01,Done,,,,,
8552202,K00914.01,Done,,,,,
9140402,K00928.01,Done,,,,,
8951215,K00924.01,Done,,,,,
2860866,K01103.01,Done,,,,,
10319385,K01169.01,Done,,,,,
11180361,K00971.01,Done,,,,,
2853446,K01118.01,Done,,,,,
3942446,K01193.01,Done,,,,,
8260218,K01066.01,Done,,,,,
6359320,K01127.03,Done,,,,,
12105051,K00141.01,Done,,,,,
6837146,K01362.01,Done,,,,,
6607286,K01239.01,Done,,,,,
6607447,K01242.01,Done,,,,,
6441738,K01246.01,Done,,,,,
10928043,K01315.01,Done,,,,,
8631160,K01271.01,Done,,,,,
9202151,K01393.01,Done,,,,,
9427402,K01397.01,Done,,,,,
9100484,K01399.01,Done,,,,,
6719086,K01357.01,Done,,,,,
11026304,K01420.01,Done,,,,,
6946199,K01359.02,Done,,,,,
4276716,K01619.01,Done,,,,,
11904734,K01764.01,Done,,,,,
11870545,K01510.01,Done,,,,,
5031857,K01573.02,Done,,,,,
6705142,K01758.01,Done,,,,,
4918309,K01582.01,Done,,,,,
5360920,K01675.01,Done,,,,,
5531953,K01681.01,Done,,,,,
7499398,K01473.01,Done,,,,,
5039228,K01597.01,Done,,,,,
5283458,K01547.01,Done,,,,,
7750419,K01708.01,Done,,,,,
5513648,K01962.01,Done,,,,,
7887791,K01964.01,Done,,,,,
9634821,K02037.03,Done,,,,,
11773328,K01906.01,Done,,,,,
3248501,K02052.01,Done,,,,,
2579043,K02064.01,Done,,,,,
3648437,K01861.01,Done,,,,,
5731623,K01793.01,Done,,,,,
9883311,K01872.01,Done,,,,,
4242147,K01934.01,Done,,,,,
4349442,K01803.01,Done,,,,,
10844890,K01946.01,Done,,,,,
8624520,K01816.01,Done,,,,,
6300348,K00212.01,Done,,,,,
3097926,K02186.01,Done,,,,,
7215678,K02354.01,Done,,,,,
9580992,K02217.01,Done,,,,,
11520459,K02226.01,Done,,,,,
7746958,K02324.01,Done,,,,,
8074328,K02486.01,Done,,,,,
8894646,K02641.01,Done,,,,,
6867588,K02571.01,Done,,,,,
7501646,K02572.01,Done,,,,,
12257999,K02577.01,Done,,,,,
6922203,K02578.01,Done,,,,,
9283156,K02657.01,Done,,,,,
9574158,K02512.01,Done,,,,,
4047631,K02519.01,Done,,,,,
7446631,K02598.01,Done,,,,,
12208631,K02449.01,Done,,,,,
8631751,K02453.01,Done,,,,,
5095635,K02607.01,Done,,,,,
4172013,K02386.01,Done,,,,,
9580167,K02548.01,Done,,,,,
7984574,K02400.01,Done,,,,,
11622985,K02550.01,Done,,,,,
6467363,K02840.02,Done,,,,,
9697131,K02706.01,Done,,,,,
10917043,K02770.01,Done,,,,,
6697605,K02851.02,Done,,,,,
6346809,K02775.01,Done,,,,,
11098013,K02712.01,Done,,,,,
3425851,K00268.01,Done,,,,,
10397751,K02859.03,Done,,,,,
8176564,K02720.01,Done,,,,,
10604521,K02797.01,Done,,,,,
10597693,K02958.01,Done,,,,,
2985587,K02807.01,Done,,,,,
11197853,K02813.01,Done,,,,,
7899070,K02683.01,Done,,,,,
10265602,K02689.01,Done,,,,,
4552729,K02691.01,Done,,,,,
5196864,K02695.01,Done,,,,,
8639908,K02700.01,Done,,,,,
11076400,K02759.01,Done,,,,,
7668416,K03089.01,Done,,,,,
8241079,K03020.01,Done,,,,,
7051180,K00064.01,Done,,,,,
2446113,K00379.02,Done,,,,,
5903749,K03029.01,Done,,,,,
8581240,K03111.01,Done,,,,,
8554498,K00005.01,Done,,,,,
2973386,K03034.01,Done,,,,,
9834731,K03043.01,Done,,,,,
4252322,K00396.01,Done,,,,,
4770174,K02971.01,Done,,,,,
4676964,K03069.01,Done,,,,,
11566064,K00353.01,Done,,,,,
10000941,K04146.02,Done,,,,,
8265218,K00522.01,Done,,,,,
10016874,K00426.01,Done,,,,,
10395543,K00531.01,Done,,,,,
5443837,K00554.01,Done,,,,,
2832589,K01942.02,Done,,,,,
7199397,K00075.01,Done,,,,,
9703198,K00469.01,Done,,,,,
10221013,K00728.01,Done,,,,,
7630229,K00683.01,Done,,,,,
7730747,K00684.01,Done,,,,,
7976520,K00687.01,Done,,,,,
4055765,K00100.01,Done,,,,,
5131180,K00641.01,Done,,,,,
10287242,K00735.01,Done,,,,,
5441980,K00607.01,Done,,,,,
6309763,K00611.01,Done,,,,,
9846348,K00716.01,Done,,,,,
12417486,K00622.01,Done,,,,,
3103212,K04145.01,Done,,,,,
7449554,K02357.02,Done,,,,,
6140059,K04123.01,Done,,,,,
11970988,K04129.01,Done,,,,,
6792908,K04341.01,Done,,,,,
6350882,K04410.01,Done,,,,,
9456281,K04207.01,Done,,,,,
7918478,K04209.01,Done,,,,,
4571844,K04353.01,Done,,,,,
7582691,K04419.01,Done,,,,,
1724719,K04212.02,Done,,,,,
11081504,K04287.01,Done,,,,,
3550372,K04357.01,Done,,,,,
10991114,K04374.01,Done,,,,,
5197233,K04178.01,Done,,,,,
8741470,K04251.01,Done,,,,,
8330207,K04390.01,Done,,,,,
4054784,K07679.01,Done,,,,,
8396660,K04407.01,Done,,,,,
10467714,K04480.01,Done,,,,,
9457948,K04694.01,Done,,,,,
7834045,K04630.01,Done,,,,,
7891294,K04699.01,Done,,,,,
9413156,K04700.01,Done,,,,,
5954001,K04633.01,Done,,,,,
5552562,K04495.01,Done,,,,,
4073017,K07681.01,Done,,,,,
9579208,K03165.01,Done,,,,,
9773270,K04636.01,Done,,,,,
12645057,K04497.01,Done,,,,,
10937749,K04499.01,Done,,,,,
8443527,K03197.01,Done,,,,,
10907132,K04503.01,Done,,,,,
11655826,K04643.01,Done,,,,,
12554634,K04714.01,Done,,,,,
2572029,K04581.01,Done,,,,,
8107611,K04656.01,Done,,,,,
8806985,K04588.01,Done,,,,,
11337012,K04666.01,Done,,,,,
5985713,K03190.01,Done,,,,,
5033823,K04546.01,Done,,,,,
3223433,K04548.01,Done,,,,,
9479306,K04906.01,Done,,,,,
4919550,K04766.01,Done,,,,,
8301878,K03301.01,Done,,,,,
12071754,K04914.01,Done,,,,,
10384298,K03224.01,Done,,,,,
3849187,K04780.01,Done,,,,,
11905409,K03312.01,Done,,,,,
9571186,K03313.01,Done,,,,,
6955671,K03329.01,Done,,,,,
9935642,K04885.01,Done,,,,,
7285757,K03271.02,Done,,,,,
4262040,K03202.01,Done,,,,,
11970050,K04893.01,Done,,,,,
10584140,K04833.01,Done,,,,,
6268648,K01613.02,Done,,,,,
8628665,K03434.01,Done,,,,,
5553959,K03377.01,Done,,,,,
5384713,K03444.01,Done,,,,,
8644365,K03384.01,Done,,,,,
10793576,K03451.01,Done,,,,,
6947668,K03455.01,Done,,,,,
3219037,K03395.01,Done,,,,,
8905246,K03473.01,Done,,,,,
8121328,K03486.01,Done,,,,,
4263529,K03358.01,Done,,,,,
4820550,K03823.01,Done,,,,,
10281221,K03913.01,Done,,,,,
7017372,K03689.01,Done,,,,,
6887030,K07795.01,Done,,,,,
5008245,K03770.01,Done,,,,,
6507433,K03815.01,Done,,,,,
8765560,K03891.01,Done,,,,,
5211199,K02158.02,Done,,,,,
8189801,K02480.01,Done,,,,,
10028352,K01957.01,Done,,,,,
10917681,K01963.01,Done,,,,,
10352333,K03991.01,Done,,,,,
12253474,K01947.01,Done,,,,,
9904006,K02135.02,Done,,,,,
9758032,K03137.01,Done,,,,,
9634821,K02037.02,Done,,,,,
6509282,K05287.01,Done,,,,,
6776555,K05327.01,Done,,,,,
8741367,K05566.01,Done,,,,,
10813078,K05831.01,Done,,,,,
8105719,K05476.01,Done,,,,,
8158429,K05482.01,Done,,,,,
8197406,K05486.01,Done,,,,,
10090854,K05762.01,Done,,,,,
7377343,K05384.01,Done,,,,,
8396288,K05512.01,Done,,,,,
8429817,K05515.01,Done,,,,,
11520114,K05909.01,Done,,,,,
10967168,K05845.01,Done,,,,,
11081504,K04287.02,Done,,,,,
9655711,K06209.01,Done,,,,,
5816144,K06137.01,Done,,,,,
7825899,K00896.03,Done,,,,,
11856178,K06246.01,Done,,,,,
7375348,K00266.02,Done,,,,,
7983117,K03214.02,Done,,,,,
8362974,K07023.01,Done,,,,,
3765917,K04526.02,Done,,,,,
3854496,K06368.01,Done,,,,,
11241560,K07426.01,Done,,,,,
11282568,K07430.01,Done,,,,,
11288772,K07435.01,Done,,,,,
6019971,K06646.01,Done,,,,,
2422820,K06267.01,Done,,,,,
10396708,K07320.01,Done,,,,,
5171707,K06532.01,Done,,,,,
9596064,K07197.01,Done,,,,,
6187508,K06672.01,Done,,,,,
7939761,K06934.01,Done,,,,,
8613446,K07069.01,Done,,,,,
10546063,K07339.01,Done,,,,,
8760760,K07088.01,Done,,,,,
10680424,K07361.01,Done,,,,,
12016243,K07506.01,Done,,,,,
12208631,K02449.02,Done,,,,,
12304728,K07520.01,Done,,,,,
4939265,K06475.01,Done,,,,,
3230805,K03068.02,Done,,,,,
11092783,K07408.01,Done,,,,,
3748855,K06355.01,Done,,,,,
6628926,K06746.01,Done,,,,,
6670610,K06752.01,Done,,,,,
7447895,K06878.01,Done,,,,,
7461521,K06882.01,Done,,,,,
9203154,K07144.01,Done,,,,,
9221627,K07148.01,Done,,,,,
4735826,K03184.03,Done,,,,,
10407191,K08011.01,Done,,,,,
10920281,K08037.01,Done,,,,,
9142714,K07928.01,Done,,,,,
12307496,K08078.01,Done,,,,,
